2006.11.11 16:34 B d:\projects\brakte\Brakte06Latest\testingPages\htmlarea\plugins\CSS\lang\en.js --> 64.151.58.228 /brakte/testingPages/htmlarea/plugins/CSS/lang en.js
2006.12.22 11:28 B E:\Tasks\2006\Dec\21\PeterLouis\WEB\admin\htmlarea\plugins\CSS\lang\en.js --> peterlouissalon.com /beta/WEB/admin/htmlarea/plugins/CSS/lang en.js
2006.12.22 11:28 B E:\Tasks\2006\Dec\21\PeterLouis\WEB\admin\htmlarea\plugins\CSS\lang\WS_FTP.LOG --> peterlouissalon.com /beta/WEB/admin/htmlarea/plugins/CSS/lang WS_FTP.LOG
