2006.11.29 01:14 B C:\Documents and Settings\Rashid Bilgrami\Desktop\PeterLouis\WEB\css\style.css --> www.toledowebshop.com /demos/PLS/WEB/css style.css
2006.11.29 01:31 B C:\Documents and Settings\Rashid Bilgrami\Desktop\PeterLouis\WEB\css\style.css --> ftps17.brinkster.com /khalydhassan/webroot/Projects/PLS/WEB/css style.css
2006.11.29 01:31 B C:\Documents and Settings\Rashid Bilgrami\Desktop\PeterLouis\WEB\css\WS_FTP.LOG --> ftps17.brinkster.com /khalydhassan/webroot/Projects/PLS/WEB/css WS_FTP.LOG
