2006.09.16 16:57 B D:\projects\marina\admin\js\images\db\24-7-retail-hotcakes-logo.jpg --> ftps17.brinkster.com /khalydhassan/webroot/Projects/Marina/admin/js/images/db 24-7-retail-hotcakes-logo.jpg
2006.09.16 16:57 B D:\projects\marina\admin\js\images\db\hotcakes-logo.jpg --> ftps17.brinkster.com /khalydhassan/webroot/Projects/Marina/admin/js/images/db hotcakes-logo.jpg
2006.09.16 16:57 B D:\projects\marina\admin\js\images\db\Thumbs.db --> ftps17.brinkster.com /khalydhassan/webroot/Projects/Marina/admin/js/images/db Thumbs.db
2006.12.22 12:23 B E:\Tasks\2006\Dec\21\PeterLouis\WEB\admin\js\images\db\24-7-retail-hotcakes-logo.jpg --> peterlouissalon.com /beta/WEB/admin/js/images/db 24-7-retail-hotcakes-logo.jpg
2006.12.22 12:23 B E:\Tasks\2006\Dec\21\PeterLouis\WEB\admin\js\images\db\hotcakes-logo.jpg --> peterlouissalon.com /beta/WEB/admin/js/images/db hotcakes-logo.jpg
2006.12.22 12:23 B E:\Tasks\2006\Dec\21\PeterLouis\WEB\admin\js\images\db\Thumbs.db --> peterlouissalon.com /beta/WEB/admin/js/images/db Thumbs.db
