2006.11.11 16:50 B d:\projects\brakte\Brakte06Latest\testingPages\htmlarea\ChangeLog --> 64.151.58.228 /brakte/testingPages/htmlarea ChangeLog
2006.11.11 16:50 B d:\projects\brakte\Brakte06Latest\testingPages\htmlarea\dialog.js --> 64.151.58.228 /brakte/testingPages/htmlarea dialog.js
2006.11.11 16:50 B d:\projects\brakte\Brakte06Latest\testingPages\htmlarea\htmlarea.css --> 64.151.58.228 /brakte/testingPages/htmlarea htmlarea.css
2006.11.11 16:50 B d:\projects\brakte\Brakte06Latest\testingPages\htmlarea\htmlarea.js --> 64.151.58.228 /brakte/testingPages/htmlarea htmlarea.js
2006.11.11 16:50 B d:\projects\brakte\Brakte06Latest\testingPages\htmlarea\index.html --> 64.151.58.228 /brakte/testingPages/htmlarea index.html
2006.11.11 16:51 B d:\projects\brakte\Brakte06Latest\testingPages\htmlarea\popupdiv.js --> 64.151.58.228 /brakte/testingPages/htmlarea popupdiv.js
2006.11.11 16:51 B d:\projects\brakte\Brakte06Latest\testingPages\htmlarea\popupwin.js --> 64.151.58.228 /brakte/testingPages/htmlarea popupwin.js
2006.11.11 16:51 B d:\projects\brakte\Brakte06Latest\testingPages\htmlarea\reference.html --> 64.151.58.228 /brakte/testingPages/htmlarea reference.html
2006.11.11 16:51 B d:\projects\brakte\Brakte06Latest\testingPages\htmlarea\release-notes.html --> 64.151.58.228 /brakte/testingPages/htmlarea release-notes.html
2006.12.22 11:42 B E:\Tasks\2006\Dec\21\PeterLouis\WEB\admin\htmlarea\ChangeLog --> peterlouissalon.com /beta/WEB/admin/htmlarea ChangeLog
2006.12.22 11:42 B E:\Tasks\2006\Dec\21\PeterLouis\WEB\admin\htmlarea\dialog.js --> peterlouissalon.com /beta/WEB/admin/htmlarea dialog.js
2006.12.22 11:42 B E:\Tasks\2006\Dec\21\PeterLouis\WEB\admin\htmlarea\htmlarea.css --> peterlouissalon.com /beta/WEB/admin/htmlarea htmlarea.css
2006.12.22 11:43 B E:\Tasks\2006\Dec\21\PeterLouis\WEB\admin\htmlarea\htmlarea.js --> peterlouissalon.com /beta/WEB/admin/htmlarea htmlarea.js
2006.12.22 11:43 B E:\Tasks\2006\Dec\21\PeterLouis\WEB\admin\htmlarea\index.html --> peterlouissalon.com /beta/WEB/admin/htmlarea index.html
2006.12.22 11:43 B E:\Tasks\2006\Dec\21\PeterLouis\WEB\admin\htmlarea\popupdiv.js --> peterlouissalon.com /beta/WEB/admin/htmlarea popupdiv.js
2006.12.22 11:43 B E:\Tasks\2006\Dec\21\PeterLouis\WEB\admin\htmlarea\popupwin.js --> peterlouissalon.com /beta/WEB/admin/htmlarea popupwin.js
2006.12.22 11:44 B E:\Tasks\2006\Dec\21\PeterLouis\WEB\admin\htmlarea\reference.html --> peterlouissalon.com /beta/WEB/admin/htmlarea reference.html
2006.12.22 11:44 B E:\Tasks\2006\Dec\21\PeterLouis\WEB\admin\htmlarea\release-notes.html --> peterlouissalon.com /beta/WEB/admin/htmlarea release-notes.html
2006.12.22 11:44 B E:\Tasks\2006\Dec\21\PeterLouis\WEB\admin\htmlarea\WS_FTP.LOG --> peterlouissalon.com /beta/WEB/admin/htmlarea WS_FTP.LOG
